# Blender 4.1.1 MTL File: 'None'
# www.blender.org

newmtl Material
Ns 250.000000
Ka 1.000000 1.000000 1.000000
Ks 0.500000 0.500000 0.500000
Ke 0.000000 0.000000 0.000000
Ni 1.450000
d 1.000000
illum 2
map_Kd /home/svatostop/progs/vulkan-dev/engine/source/engine/textures/bg2.png
